<?xml version="1.0" encoding="utf-8"?>
<!-- Generator: Adobe Illustrator 21.0.0, SVG Export Plug-In . SVG Version: 6.00 Build 0)  -->
<svg version="1.1" id="Layer_1" xmlns="http://www.w3.org/2000/svg" xmlns:xlink="http://www.w3.org/1999/xlink" x="0px" y="0px"
	 viewBox="0 0 320 320" style="enable-background:new 0 0 320 320;" xml:space="preserve">
<style type="text/css">
	.st0{fill:#FFFFFF;}
	.st1{opacity:0.3;fill:url(#_Path_3_1_);enable-background:new    ;}
	.st2{fill:#EC2B7B;}
</style>
<title>ArtistMic</title>
<g>
	<g id="Layer_2">
		<g id="Layer_1-2">
			<g id="_Group_">
				<path id="_Path_2" class="st0" d="M0,160C0,71.6,71.6,0,160,0s160,71.6,160,160s-71.6,160-160,160C71.7,320,0,248.5,0,160.1
					C0,160.1,0,160,0,160z"/>
				
					<linearGradient id="_Path_3_1_" gradientUnits="userSpaceOnUse" x1="141.7061" y1="187.4814" x2="257.1511" y2="59.6832" gradientTransform="matrix(1 0 0 -1 0 322)">
					<stop  offset="0" style="stop-color:#000000"/>
					<stop  offset="1" style="stop-color:#FFFFFF"/>
				</linearGradient>
				<path id="_Path_3" class="st1" d="M320,160c0-5.3-0.3-10.6-0.8-15.8l-80.7-86.6L211,53.3l-27,7.8l54,67.7L201.9,97l2.3,5.8
					l1.2,31.6l-40-26.1l-62.3,107.3l-18.6-2l0.9,45.5l57.8,60c5.6,0.6,11.1,0.9,16.7,0.9C248.4,320,320,248.4,320,160z"/>
				<polygon id="_Path_4" class="st0" points="220.9,51.5 194.8,56 206.4,74.6 220.9,92.5 232.7,105.8 243.6,109.2 252.1,89.1 
					252.1,75.2 245.6,64.4 				"/>
				<g id="_Group_2">
					<path id="_Path_5" class="st2" d="M162.9,105.8l37.1,37l-25.6,20.6c-20.2,16.2-40.4,32.4-60.5,48.6c-6.5,5.2-12.4,4.8-18.5-1
						c-5.6-5.3-6.6-13.1-2.1-18.7c22.6-28.3,45.3-56.6,68-84.8C161.8,106.8,162.3,106.3,162.9,105.8z"/>
					<path id="_Compound_Path_" class="st2" d="M185.9,58.9c15.1-14.3,42.7-12.8,57.8,3.4c15.3,16.4,16.1,43.1,1.9,56.5L185.9,58.9z
						 M215.1,65.5c-0.5-3.9-2.5-6.6-6.7-6.7c-4.2-0.1-6.5,2.5-6.9,6.5c-0.1,3.7,2.9,6.8,6.6,6.9C212.2,72.1,214.6,69.8,215.1,65.5
						L215.1,65.5z M241.5,86.6c3.7-0.2,6.7-3.2,6.8-6.9c-0.2-3.8-3.3-6.7-7.1-6.6c-3.6,0-6.5,3-6.5,6.6
						C234.5,83.2,238.1,86.6,241.5,86.6L241.5,86.6z M225.7,70.6c3.7,0,6.8-3,6.8-6.7c0,0,0-0.1,0-0.1c0.1-3.5-2.7-6.4-6.2-6.5
						c-0.1,0-0.2,0-0.2,0c-3.8-0.2-7,2.7-7.2,6.4C219,67.5,222,70.5,225.7,70.6z M224.1,87.9c3.5,0.2,6.5-2.6,6.7-6.1
						c0-0.2,0-0.4,0-0.6c-0.1-3.7-3.1-6.6-6.8-6.6c-0.1,0-0.1,0-0.2,0c-3.8,0.4-6.2,2.5-6.4,6.5c-0.2,3.6,2.6,6.6,6.1,6.7
						C223.8,87.9,224,87.9,224.1,87.9z M246.7,97.3c0.1-3.7-2.8-6.8-6.5-6.9c-3.7-0.1-6.8,2.8-6.9,6.5c0,0.2,0,0.4,0,0.6
						c-0.1,3.5,2.7,6.3,6.2,6.4c0.1,0,0.2,0,0.3,0c3.6,0.2,6.6-2.5,6.8-6.1C246.7,97.6,246.7,97.5,246.7,97.3L246.7,97.3z"/>
					<path id="_Path_6" class="st2" d="M234.1,129.2c-8.6,5.6-18.4,6.7-28.7,5.2c-1.5-0.5-2.9-1.4-3.9-2.7
						c-9.4-9.2-18.8-18.5-28.1-27.9c-1.7-1.8-2.8-4-3.2-6.4c-1.7-9.7,0.7-18.6,5.3-26.9L234.1,129.2z"/>
					<path id="_Path_7" class="st2" d="M84.5,213.6c6.7,3.6,7.9,7.2,6.5,13.1c-1.5,6.7-1.9,13.7-1.1,20.5c0.9,8,6.1,11.9,14,13.2
						c12.8,1.9,24.8-1.6,36.6-5.7c14.1-4.8,28-10.5,42.3-15c12.2-3.7,24.9-5,37.6-3.8c-0.3,2.7-0.5,5.1-0.7,7.2
						c-10,1.2-20,1.3-29.2,3.9c-16.1,4.5-31.5,11.2-47.6,15.9c-10.8,3.2-22.1,5.9-33.4,6.5c-18.4,1-29.2-10.1-28.7-28.6
						C81.1,231.9,83.2,223.2,84.5,213.6z"/>
					<path id="_Path_8" class="st2" d="M245.6,123.8c-0.2,4.9-4.1,7-7.5,5c-1-0.7-2-1.5-2.8-2.5l-56.7-56.7c-2.6-2.6-5.4-5.5-1.7-9
						c3.3-3.1,6.2-0.7,8.6,1.8c6.2,6.2,12.4,12.4,18.5,18.5c12.7,12.7,25.4,25.5,38.1,38.2C243.4,120.6,244.6,122.2,245.6,123.8z"/>
				</g>
			</g>
		</g>
	</g>
</g>
</svg>
