<?xml version="1.0" encoding="utf-8"?>
<!-- Generator: Adobe Illustrator 21.0.0, SVG Export Plug-In . SVG Version: 6.00 Build 0)  -->
<svg version="1.1" id="Layer_1" xmlns="http://www.w3.org/2000/svg" xmlns:xlink="http://www.w3.org/1999/xlink" x="0px" y="0px"
	 viewBox="0 0 350.2 350.6" style="enable-background:new 0 0 350.2 350.6;" xml:space="preserve">
<style type="text/css">
	.st0{fill:#0D2033;}
	.st1{fill:#FFFFFF;}
</style>
<title>ArtistAgent</title>
<g>
	<g id="Layer_2">
		<g id="Layer_1-2">
			<g id="_Group_">
				<g id="_Group_2">
					
						<image style="overflow:visible;opacity:0.4;enable-background:new    ;" width="1460" height="1462" xlink:href="5DF084748B4B4B26.png"  transform="matrix(0.2597 0 0 0.2597 -14.4802 -10)">
					</image>
					<circle class="st0" cx="175.1" cy="176.5" r="173.2"/>
				</g>
				<polygon id="_Path_" class="st1" points="299.8,235.9 256,201.7 256,225 94.1,225 94.1,200.5 50.4,234.7 94.1,268.9 94.1,244.4 
					256,244.4 256,270.1 				"/>
				<path class="st1" d="M118.7,101.9h-6.3l-1.6-4.4H99.6l-1.6,4.4h-6.3l10.1-26h6.9L118.7,101.9z M109.3,92.6l-4-11.2l-4.1,11.2
					H109.3z"/>
				<path class="st1" d="M142.2,101.9h-6.4l-5.1-9.2h-4v9.2h-5.5v-26h12.2c2.4-0.1,4.7,0.7,6.4,2.3c1.6,1.6,2.4,3.7,2.4,6
					c0.1,1.9-0.5,3.8-1.7,5.2c-1,1.3-2.4,2.2-4,2.5L142.2,101.9z M132.4,87.8c1,0,2-0.3,2.8-1c1.4-1.3,1.5-3.6,0.1-5
					c0,0-0.1-0.1-0.1-0.1c-0.8-0.7-1.8-1-2.8-1h-5.8v7L132.4,87.8z"/>
				<path class="st1" d="M164.6,101.9h-18.4v-26h18.4v4.9h-12.9v5.5h12.6v4.9h-12.6V97h12.9L164.6,101.9z"/>
				<path class="st1" d="M191.7,101.9h-5.5V91.2l-10-15.4h6.3l6.5,10.4l6.4-10.4h6.3l-9.9,15.4L191.7,101.9z"/>
				<path class="st1" d="M214.8,102.3c-3.6,0.1-7.2-1.3-9.7-3.8c-5.1-5.4-5.1-13.9,0-19.3c5.5-5.1,14-5.1,19.5,0
					c5.1,5.4,5.1,13.9,0,19.3C221.9,101.1,218.4,102.5,214.8,102.3z M209.1,95c3.1,3.1,8.1,3.2,11.3,0.1c0,0,0.1-0.1,0.1-0.1
					c2.9-3.6,2.9-8.7,0-12.2c-3.1-3.2-8.1-3.2-11.3-0.2c-0.1,0.1-0.1,0.1-0.2,0.2C206.1,86.4,206.1,91.5,209.1,95L209.1,95z"/>
				<path class="st1" d="M252.8,99.4c-2,1.9-4.9,2.9-8.7,2.9c-3.8,0-6.8-1-8.7-3c-2-2.1-3.1-5-3-7.9V75.9h5.6v15.4
					c-0.1,1.6,0.5,3.2,1.6,4.5c1.2,1.2,2.9,1.8,4.5,1.7c1.7,0.1,3.3-0.5,4.5-1.7c1.1-1.2,1.7-2.8,1.6-4.5V75.9h5.7v15.6
					C255.9,94.4,254.8,97.3,252.8,99.4z"/>
				<path class="st1" d="M99.2,134.3h-6.3l-1.6-4.4H80.2l-1.6,4.4h-6.3l10.1-26h6.9L99.2,134.3z M89.8,125.1l-4-11.2l-4,11.2H89.8z"
					/>
				<path class="st1" d="M124.9,134.3h-5.3l-12.4-17v17h-5.5v-26h5.7l12,16.3v-16.3h5.5V134.3z"/>
				<path class="st1" d="M164.3,134.3H158l-1.6-4.4h-11.2l-1.6,4.4h-6.3l10.1-26h6.9L164.3,134.3z M154.9,125.1l-4-11.2l-4,11.2
					H154.9z"/>
				<path class="st1" d="M187.8,134.3h-6.4l-5.1-9.2h-4v9.2h-5.5v-26h12.2c2.4-0.1,4.7,0.7,6.4,2.3c1.6,1.6,2.4,3.8,2.4,6
					c0.1,1.9-0.5,3.7-1.7,5.2c-1,1.3-2.4,2.2-4,2.5L187.8,134.3z M178,120.3c1,0,2-0.3,2.8-1c1.4-1.3,1.5-3.6,0.1-5
					c0,0-0.1-0.1-0.1-0.1c-0.8-0.7-1.8-1-2.8-1h-5.8v7L178,120.3z"/>
				<path class="st1" d="M203,134.3h-5.6v-21.1h-7.6v-4.9h20.7v4.9H203V134.3z"/>
				<path class="st1" d="M219.6,134.3h-5.5v-26h5.5V134.3z"/>
				<path class="st1" d="M234,134.8c-4.6,0-8.3-1.4-11-4.1l3-4.2c2.1,2.3,5.1,3.6,8.3,3.5c1.2,0.1,2.3-0.2,3.3-0.8
					c0.7-0.4,1.2-1.2,1.2-2c0-0.7-0.4-1.4-1.1-1.8c-0.9-0.5-1.8-0.9-2.8-1c-1.2-0.2-2.4-0.5-3.6-0.9c-1.2-0.4-2.4-0.8-3.6-1.3
					c-2.4-1.1-4-3.6-3.9-6.2c0-2.2,1-4.3,2.7-5.6c2-1.6,4.6-2.4,7.2-2.3c3.7-0.1,7.4,1.2,10.1,3.6l-3.1,4c-2.1-1.9-4.8-2.9-7.6-2.8
					c-1-0.1-1.9,0.2-2.7,0.7c-0.6,0.4-1,1.1-1,1.9c0,0.7,0.5,1.3,1.1,1.6c0.9,0.5,1.8,0.8,2.8,1c1.2,0.2,2.4,0.5,3.6,0.9
					c1.2,0.4,2.4,0.8,3.6,1.4c2.4,1.1,4,3.6,3.9,6.2c0.1,2.3-0.9,4.5-2.7,6C239.9,134,237.4,134.8,234,134.8z"/>
				<path class="st1" d="M259.2,134.3h-5.6v-21.1h-7.6v-4.9h20.7v4.9h-7.6V134.3z"/>
				<path class="st1" d="M61.4,167.3c-3.6,0.1-7.2-1.3-9.7-3.8c-5.1-5.4-5.1-13.9,0-19.3c2.6-2.5,6.1-3.9,9.7-3.8
					c3.6-0.1,7.1,1.2,9.7,3.8c5.1,5.4,5.1,13.9,0,19.3C68.5,166,65,167.4,61.4,167.3z M55.7,160c3.1,3.2,8.1,3.2,11.3,0.2
					c0.1-0.1,0.1-0.1,0.2-0.2c2.9-3.6,2.9-8.7,0-12.2c-3.1-3.2-8.1-3.2-11.3-0.2c-0.1,0.1-0.1,0.1-0.2,0.2
					C52.8,151.3,52.8,156.4,55.7,160z"/>
				<path class="st1" d="M100,166.8h-6.4l-5.1-9.2h-4v9.2h-5.5v-26h12.2c2.4-0.1,4.7,0.7,6.4,2.3c1.6,1.6,2.4,3.8,2.4,6
					c0.1,1.9-0.5,3.7-1.7,5.2c-1,1.3-2.4,2.2-4,2.5L100,166.8z M90.2,152.8c1,0,2-0.3,2.8-1c1.4-1.3,1.5-3.6,0.1-5
					c0,0-0.1-0.1-0.1-0.1c-0.8-0.7-1.8-1-2.8-1h-5.8v7L90.2,152.8z"/>
				<path class="st1" d="M138.2,166.8h-6.3l-1.6-4.4h-11.1l-1.6,4.4h-6.3l10.1-26h6.9L138.2,166.8z M128.8,157.5l-4-11.2l-4,11.2
					H128.8z"/>
				<path class="st1" d="M163.9,166.8h-5.3l-12.4-17v17h-5.5v-26h5.7l12,16.3v-16.3h5.5V166.8z"/>
				<path class="st1" d="M203.2,166.8h-6.3l-1.6-4.4h-11.2l-1.6,4.4h-6.3l10.1-26h6.9L203.2,166.8z M193.8,157.5l-4-11.2l-4,11.2
					H193.8z"/>
				<path class="st1" d="M216.9,167.3c-3.6,0.1-7.2-1.3-9.8-3.7c-5.3-5.4-5.3-14.1,0-19.5c2.7-2.5,6.2-3.8,9.8-3.7
					c4.4-0.2,8.5,2,10.8,5.8l-4.6,2.5c-0.6-1-1.5-1.8-2.6-2.4c-1.1-0.6-2.3-1-3.6-1c-2.2-0.1-4.3,0.8-5.8,2.4
					c-3.1,3.5-3.1,8.7,0,12.2c1.5,1.6,3.6,2.5,5.8,2.4c1.1,0,2.2-0.2,3.2-0.6c0.9-0.3,1.7-0.8,2.4-1.4v-3.1h-6.9v-4.9H228v10
					C225.2,165.6,221.2,167.4,216.9,167.3z"/>
				<path class="st1" d="M250.8,166.8h-18.4v-26h18.4v4.9h-12.9v5.5h12.6v4.9h-12.6v5.9h12.9V166.8z"/>
				<path class="st1" d="M278.4,166.8H273l-12.4-17v17h-5.5v-26h5.7l12,16.3v-16.3h5.5V166.8z"/>
				<path class="st1" d="M295.1,166.8h-5.6v-21.1H282v-4.9h20.7v4.9h-7.6V166.8z"/>
			</g>
		</g>
	</g>
</g>
</svg>
